A Time Series Analysis on Nesting Habits of Loggerhead Turtles
…
Figure 7: Individual Plots for each Season: 1988-2020

# A tsibble: 23 x 5 [1Y]
    Year Beginning   End  Peak Total
   <int>     <dbl> <dbl> <dbl> <dbl>
 1  1998       143   249  196    106
 2  1999       144   201  172.    57
 3  2000       130   266  198    136
 4  2001       147   224  186.    77
 5  2002       123   224  174.   101
 6  2003       141   216  178.    75
 7  2004       160   231  196.    71
 8  2005       155   223  189     68
 9  2006       145   219  182     74
10  2007       178   218  198     40
# ℹ 13 more rows
…
# A tsibble: 23 x 3 [1Y]
    Year Beginning  Begin_DOY
   <int> <date>         <dbl>
 1  1998 1998-05-23       143
 2  1999 1999-05-24       144
 3  2000 2000-05-09       130
 4  2001 2001-05-27       147
 5  2002 2002-05-03       123
 6  2003 2003-05-21       141
 7  2004 2004-06-08       160
 8  2005 2005-06-04       155
 9  2006 2006-05-25       145
10  2007 2007-06-27       178
# ℹ 13 more rows
…
# A tsibble: 23 x 7 [1Y]
    Year Beginning   End  Peak Total Begin_DOY avg_begin_temp
   <dbl>     <dbl> <dbl> <dbl> <dbl>     <dbl>          <dbl>
 1  1998       143   249  196    106       144           27.1
 2  1999       144   201  172.    57       145           26.1
 3  2000       130   266  198    136       131           26.4
 4  2001       147   224  186.    77       148           26.2
 5  2002       123   224  174.   101       124           26.2
 6  2003       141   216  178.    75       142           26.7
 7  2004       160   231  196.    71       161           26.9
 8  2005       155   223  189     68       156           27.8
 9  2006       145   219  182     74       146           26.6
10  2007       178   218  198     40       179           26.0
# ℹ 13 more rows
…
# A tsibble: 23 x 7 [1Y]
    Year Beginning   End  Peak Total End_DOY avg_end_temp
   <dbl>     <dbl> <dbl> <dbl> <dbl>   <dbl>        <dbl>
 1  1998       143   249  196    106     250         29.2
 2  1999       144   201  172.    57     202         28.8
 3  2000       130   266  198    136     267         29.0
 4  2001       147   224  186.    77     225         28.5
 5  2002       123   224  174.   101     225         28.4
 6  2003       141   216  178.    75     217         28.4
 7  2004       160   231  196.    71     232         28.7
 8  2005       155   223  189     68     224         28.9
 9  2006       145   219  182     74     220         29.5
10  2007       178   218  198     40     219         29.1
# ℹ 13 more rows
…
