A Time Series Analysis on Nesting Habits of Loggerhead Turtles
…
Figure 7: Individual Plots for each Season: 1988-2020

# A tibble: 1 × 3
   Year Month Ttl_Nests
  <dbl> <ord>     <int>
1  2007 Jul          26

# A tibble: 1 × 3
   Year Month Ttl_Nests
  <dbl> <ord>     <int>
1  2005 Sep           1

# A tibble: 31 × 2
    Year Ttl_Nests
   <dbl>     <int>
 1  2007        26
 2  2016        26
 3  2009        25
 4  2002        23
 5  2008        23
 6  2004        22
 7  2006        21
 8  2013        20
 9  2014        20
10  2017        20
# ℹ 21 more rows

# A tibble: 30 × 2
    Year Ttl_Nests
   <dbl>     <int>
 1  2010        23
 2  2011        22
 3  2024        22
 4  2012        21
 5  2030        21
 6  2017        20
 7  2029        20
 8  2016        19
 9  2025        19
10  2018        18
# ℹ 20 more rows
…
